####################################################################
# in the report generation via bin/reportTools/ancientPathogens.pl
# occassionally I want to include all species in the whitelist :)
####################################################################
