#   See ftp://ftp.ncbi.nlm.nih.gov/genomes/README_assembly_summary.txt for a description of the columns in this file.
# assembly_accession	bioproject	biosample	wgs_master	refseq_category	taxid	species_taxid	organism_name	infraspecific_name	isolate	version_status	assembly_level	release_type	genome_rep	seq_rel_date	asm_name	submitter	gbrs_paired_asm	paired_asm_comp	ftp_path	excluded_from_refseq	relation_to_type_material
GCF_000317415.1	PRJNA225998	SAMN02981414	AJPS00000000.1	representative genome	2711	2711	Citrus sinensis	cultivar=Valencia		latest	Chromosome	Major	Full	2012/12/12	Csi_valencia_1.0	China sweet orange genome project	GCA_000317415.1	different	ftp://ftp.ncbi.nlm.nih.gov/genomes/all/GCF/000/317/415/GCF_000317415.1_Csi_valencia_1.0		
GCF_000350225.1	PRJNA193762	SAMEA2272275	CAKH00000000.1	representative genome	2769	2769	Chondrus crispus	strain=Stackhouse		latest	Scaffold	Major	Full	2013/05/22	ASM35022v2	Genoscope - Centre National de Sequencage	GCA_000350225.2	identical	ftp://ftp.ncbi.nlm.nih.gov/genomes/all/GCF/000/350/225/GCF_000350225.1_ASM35022v2		
GCF_000002595.1	PRJNA21061	SAMN02953692	ABCN00000000.1	representative genome	3055	3055	Chlamydomonas reinhardtii	strain=CC-503 cw92 mt+		latest	Scaffold	Major	Full	2007/10/15	v3.0	DOE Joint Genome Institute	GCA_000002595.2	different	ftp://ftp.ncbi.nlm.nih.gov/genomes/all/GCF/000/002/595/GCF_000002595.1_v3.0		
GCF_000143455.1	PRJNA50441	SAMN02953753	ACJH00000000.1	representative genome	3068	3067	Volvox carteri f. nagariensis	strain=Eve		latest	Scaffold	Major	Full	2010/07/08	v1.0	US DOE Joint Genome Institute (JGI-PGF)	GCA_000143455.1	identical	ftp://ftp.ncbi.nlm.nih.gov/genomes/all/GCF/000/143/455/GCF_000143455.1_v1.0		
GCF_000733215.1	PRJNA261964	SAMN02433493	APJO00000000.1	representative genome	3075	3075	Auxenochlorella protothecoides	strain=0710		latest	Scaffold	Major	Full	2014/08/01	ASM73321v1	Beijing Genomics Institue, Shenzhen	GCA_000733215.1	identical	ftp://ftp.ncbi.nlm.nih.gov/genomes/all/GCF/000/733/215/GCF_000733215.1_ASM73321v1		
GCF_000002425.3	PRJNA28131	SAMN00120126	ABEU00000000.1	representative genome	3218	3218	Physcomitrella patens	ecotype=Gransden 2004		latest	Scaffold	Major	Full	2007/12/14	V1.1	Moss Genome Consortium	GCA_000002425.1	different	ftp://ftp.ncbi.nlm.nih.gov/genomes/all/GCF/000/002/425/GCF_000002425.3_V1.1		
GCF_002007265.1	PRJNA396054	SAMN05242642	LZYP00000000.1	representative genome	3562	3562	Spinacia oleracea	cultivar=Sp75		latest	Scaffold	Major	Full	2017/02/27	ASM200726v1	Cornell University	GCA_002007265.1	different	ftp://ftp.ncbi.nlm.nih.gov/genomes/all/GCF/002/007/265/GCF_002007265.1_ASM200726v1		
GCF_000987745.1	PRJNA320881	SAMN03342414	LBLM00000000.1	representative genome	3635	3635	Gossypium hirsutum	cultivar=TM-1		latest	Chromosome	Major	Full	2015/05/05	ASM98774v1	BGI-shenzhen	GCA_000987745.1	different	ftp://ftp.ncbi.nlm.nih.gov/genomes/all/GCF/000/987/745/GCF_000987745.1_ASM98774v1		
GCF_000208745.1	PRJNA341501	SAMEA4028428	FLSQ00000000.1	representative genome	3641	3641	Theobroma cacao	cultivar=B97-61/B2		latest	Chromosome	Major	Full	2016/07/09	Criollo_cocoa_genome_V2	CIRAD	GCA_000208745.2	different	ftp://ftp.ncbi.nlm.nih.gov/genomes/all/GCF/000/208/745/GCF_000208745.1_Criollo_cocoa_genome_V2		
GCF_000150535.2	PRJNA264084	SAMN02953710	ABIM00000000.1	representative genome	3649	3649	Carica papaya	cultivar=SunUp		latest	Scaffold	Minor	Full	2008/05/06	Papaya1.0	The Papaya Genome Sequencing Consortium	GCA_000150535.1	different	ftp://ftp.ncbi.nlm.nih.gov/genomes/all/GCF/000/150/535/GCF_000150535.2_Papaya1.0		
GCF_000313045.1	PRJNA246165	SAMEA2272451	CAJI00000000.1	representative genome	3656	3656	Cucumis melo	cultivar=DHL92		latest	Scaffold	Major	Full	2012/10/05	ASM31304v1	Genetica Molecular, Centre de Recerca en Agrigenomica (CRAG)	GCA_000313045.1	different	ftp://ftp.ncbi.nlm.nih.gov/genomes/all/GCF/000/313/045/GCF_000313045.1_ASM31304v1		
GCF_000004075.2	PRJNA182750	SAMN02953750	ACHR00000000.2	representative genome	3659	3659	Cucumis sativus	cultivar=9930		latest	Chromosome	Major	Full	2014/10/27	ASM407v2	The Cucumber Genome Initiative	GCA_000004075.2	different	ftp://ftp.ncbi.nlm.nih.gov/genomes/all/GCF/000/004/075/GCF_000004075.2_ASM407v2		
GCF_002738365.1	PRJNA418582	SAMN06886672	NEWM00000000.1	representative genome	3662	3662	Cucurbita moschata	cultivar=Rifu		latest	Scaffold	Major	Full	2017/10/31	Cmos_1.0	Cornell University	GCA_002738365.1	identical	ftp://ftp.ncbi.nlm.nih.gov/genomes/all/GCF/002/738/365/GCF_002738365.1_Cmos_1.0		
GCF_001995035.1	PRJNA397875	SAMD00048603	BDCS00000000.1	representative genome	3673	3673	Momordica charantia	strain=OHB3-1		latest	Scaffold	Major	Full	2016/12/26	ASM199503v1	Division of Gene Research, Research Center for Human and Environmental Science, Shinshu University	GCA_001995035.1	identical	ftp://ftp.ncbi.nlm.nih.gov/genomes/all/GCF/001/995/035/GCF_001995035.1_ASM199503v1		
GCF_000002775.3	PRJNA17973	SAMN02953657	AARH00000000.2	representative genome	3694	3694	Populus trichocarpa			latest	Chromosome	Major	Full	2013/10/18	Poptr2_0	US DOE Joint Genome Institute (JGI	GCA_000002775.2	identical	ftp://ftp.ncbi.nlm.nih.gov/genomes/all/GCF/000/002/775/GCF_000002775.3_Poptr2_0		
GCF_000001735.3	PRJNA116	SAMN03081427		reference genome	3702	3702	Arabidopsis thaliana	ecotype=Columbia		latest	Chromosome	Major	Full	2011/05/11	TAIR10	The Arabidopsis Information Resource (TAIR)	GCA_000001735.1	different	ftp://ftp.ncbi.nlm.nih.gov/genomes/all/GCF/000/001/735/GCF_000001735.3_TAIR10		
GCF_000686985.2	PRJNA293435	SAMN02742820	JMKK00000000.2	representative genome	3708	3708	Brassica napus	cultivar=ZS11		latest	Chromosome	Major	Full	2017/09/15	Bra_napus_v2.0	BGI-Shenzhen	GCA_000686985.2	different	ftp://ftp.ncbi.nlm.nih.gov/genomes/all/GCF/000/686/985/GCF_000686985.2_Bra_napus_v2.0		
GCF_000309985.1	PRJNA249065	SAMN02981293	AENI00000000.1	representative genome	3711	3711	Brassica rapa	cultivar=Chiifu-401-42		latest	Chromosome	Major	Full	2012/11/07	Brapa_1.0	Brassica rapa genome sequencing project, BraGSP	GCA_000309985.1	different	ftp://ftp.ncbi.nlm.nih.gov/genomes/all/GCF/000/309/985/GCF_000309985.1_Brapa_1.0		
GCF_000695525.1	PRJNA293438	SAMN02584321	JJMF00000000.1	representative genome	109376	3712	Brassica oleracea var. oleracea	cultivar=TO1000		latest	Chromosome	Major	Full	2014/05/27	BOL	CanSeq	GCA_000695525.1	different	ftp://ftp.ncbi.nlm.nih.gov/genomes/all/GCF/000/695/525/GCF_000695525.1_BOL		
GCF_000801105.1	PRJNA344915	SAMN03084390	JRUI00000000.2	representative genome	3726	3726	Raphanus sativus	cultivar=WK10039		latest	Scaffold	Major	Full	2015/09/29	Rs1.0	Dr. Namshin Kim at KRIBB	GCA_000801105.2	different	ftp://ftp.ncbi.nlm.nih.gov/genomes/all/GCF/000/801/105/GCF_000801105.1_Rs1.0		
GCF_000148765.1	PRJNA249071	SAMN02981243	ACYM00000000.1	representative genome	3750	3750	Malus domestica	cultivar=Golden Delicious		latest	Chromosome	Major	Full	2012/08/16	MalDomGD1.0	IASMA research center	GCA_000148765.2	different	ftp://ftp.ncbi.nlm.nih.gov/genomes/all/GCF/000/148/765/GCF_000148765.1_MalDomGD1.0		
GCF_000346465.2	PRJNA241430	SAMN02981429	AKXU00000000.2	representative genome	3760	3760	Prunus persica	cultivar=Lovell		latest	Chromosome	Major	Full	2017/02/02	Prunus_persica_NCBIv2	PGF	GCA_000346465.2	different	ftp://ftp.ncbi.nlm.nih.gov/genomes/all/GCF/000/346/465/GCF_000346465.2_Prunus_persica_NCBIv2		
GCF_000340665.1	PRJNA376605	SAMN02981370	AGCT00000000.1	representative genome	3821	3821	Cajanus cajan			latest	Chromosome	Major	Full	2016/09/29	C.cajan_V1.0	BGI	GCA_000340665.1	different	ftp://ftp.ncbi.nlm.nih.gov/genomes/all/GCF/000/340/665/GCF_000340665.1_C.cajan_V1.0		
GCF_000331145.1	PRJNA190909	SAMN02981489	ANPC00000000.1	representative genome	3827	3827	Cicer arietinum	cultivar=CDC Frontier		latest	Chromosome	Major	Full	2013/01/16	ASM33114v1	BGI-Shenzhen	GCA_000331145.1	different	ftp://ftp.ncbi.nlm.nih.gov/genomes/all/GCF/000/331/145/GCF_000331145.1_ASM33114v1		
GCF_000004515.4	PRJNA48389	SAMN00002965	ACUP00000000.2	representative genome	3847	3847	Glycine max	cultivar=Williams 82		latest	Chromosome	Major	Full	2015/11/04	Glycine_max_v2.0	US DOE Joint Genome Institute (JGI-PGF)	GCA_000004515.3	different	ftp://ftp.ncbi.nlm.nih.gov/genomes/all/GCF/000/004/515/GCF_000004515.4_Glycine_max_v2.0		
GCF_001865875.1	PRJNA356456	SAMN04215042	MLAU00000000.1	representative genome	3871	3871	Lupinus angustifolius	cultivar=Tanjil		latest	Chromosome	Major	Full	2016/11/16	LupAngTanjil_v1.0	CSIRO	GCA_001865875.1	identical	ftp://ftp.ncbi.nlm.nih.gov/genomes/all/GCF/001/865/875/GCF_001865875.1_LupAngTanjil_v1.0		
GCF_000219495.3	PRJNA30099	SAMN02299339	APNO00000000.1	representative genome	3880	3880	Medicago truncatula	strain=A17		latest	Chromosome	Minor	Full	2014/06/18	MedtrA17_4.0	Medicago truncatula Consortium	GCA_000219495.2	different	ftp://ftp.ncbi.nlm.nih.gov/genomes/all/GCF/000/219/495/GCF_000219495.3_MedtrA17_4.0		
GCF_000499845.1	PRJNA240798	SAMN02981484	ANNZ00000000.1	representative genome	3885	3885	Phaseolus vulgaris	cultivar=G19833		latest	Chromosome	Major	Full	2013/11/29	PhaVulg1_0	JGI	GCA_000499845.1	identical	ftp://ftp.ncbi.nlm.nih.gov/genomes/all/GCF/000/499/845/GCF_000499845.1_PhaVulg1_0		
GCF_001190045.1	PRJNA328963	SAMN03074979	JZJH00000000.1	representative genome	3914	3914	Vigna angularis	cultivar=Jingnong 6		latest	Chromosome	Major	Full	2015/07/31	Vigan1.1	Beijing University of Agriculture	GCA_001190045.1	different	ftp://ftp.ncbi.nlm.nih.gov/genomes/all/GCF/001/190/045/GCF_001190045.1_Vigan1.1		
GCF_001654055.1	PRJNA394253	SAMN04451765	LVXX00000000.1	representative genome	3981	3981	Hevea brasiliensis	cultivar=reyan7-33-97		latest	Scaffold	Major	Full	2016/06/01	ASM165405v1	Rubber Research Institute	GCA_001654055.1	different	ftp://ftp.ncbi.nlm.nih.gov/genomes/all/GCF/001/654/055/GCF_001654055.1_ASM165405v1		
GCF_001659605.1	PRJNA394209	SAMN04116956	LTYI00000000.1	representative genome	3983	3983	Manihot esculenta	cultivar=AM560-2		latest	Chromosome	Major	Full	2016/06/10	Manihot esculenta v6	DOE-Joint Genome Institute	GCA_001659605.1	different	ftp://ftp.ncbi.nlm.nih.gov/genomes/all/GCF/001/659/605/GCF_001659605.1_Manihot_esculenta_v6		
GCF_000151685.1	PRJNA34677	SAMN02953659	AASG00000000.2	representative genome	3988	3988	Ricinus communis	cultivar=Hale		latest	Scaffold	Major	Full	2011/07/07	JCVI_RCG_1.1	J. Craig Venter Institute	GCA_000151685.2	identical	ftp://ftp.ncbi.nlm.nih.gov/genomes/all/GCF/000/151/685/GCF_000151685.1_JCVI_RCG_1.1		
GCF_001625215.1	PRJNA326436	SAMN03216637	LNRQ00000000.1	representative genome	79200	4039	Daucus carota subsp. sativus	cultivar=DH1		latest	Chromosome	Major	Full	2016/05/06	ASM162521v1	USDA ARS	GCA_001625215.1	different	ftp://ftp.ncbi.nlm.nih.gov/genomes/all/GCF/001/625/215/GCF_001625215.1_ASM162521v1		
GCF_000710875.1	PRJNA319678	SAMN01906946	ASJU00000000.1	representative genome	4072	4072	Capsicum annuum	cultivar=Zunla-1		latest	Chromosome	Major	Full	2015/03/11	Pepper Zunla 1 Ref_v1.0	BGI	GCA_000710875.1	different	ftp://ftp.ncbi.nlm.nih.gov/genomes/all/GCF/000/710/875/GCF_000710875.1_Pepper_Zunla_1_Ref_v1.0		
GCF_000188115.3	PRJNA66163	SAMN02981290	AEKE00000000.2	representative genome	4081	4081	Solanum lycopersicum	cultivar=Heinz 1706		latest	Chromosome	Major	Full	2014/10/16	SL2.50	Solanaceae Genomics Project	GCA_000188115.2	different	ftp://ftp.ncbi.nlm.nih.gov/genomes/all/GCF/000/188/115/GCF_000188115.3_SL2.50		
GCF_000393655.1	PRJNA257217	SAMN02981529	ASAF00000000.1	representative genome	4096	4096	Nicotiana sylvestris			latest	Scaffold	Major	Full	2013/05/16	Nsyl	Philip Morris International R&D	GCA_000393655.1	different	ftp://ftp.ncbi.nlm.nih.gov/genomes/all/GCF/000/393/655/GCF_000393655.1_Nsyl		
GCF_000715135.1	PRJNA319578	SAMN02316627	AYMY00000000.1	representative genome	4097	4097	Nicotiana tabacum	cultivar=TN90		latest	Scaffold	Major	Full	2014/05/29	Ntab-TN90	Philip Morris International R&D	GCA_000715135.1	different	ftp://ftp.ncbi.nlm.nih.gov/genomes/all/GCF/000/715/135/GCF_000715135.1_Ntab-TN90		
GCF_000390325.2	PRJNA257218	SAMN02981530	ASAG00000000.1	representative genome	4098	4098	Nicotiana tomentosiformis			latest	Scaffold	Minor	Full	2013/05/16	Ntom_v01	Philip Morris International R&D	GCA_000390325.2	different	ftp://ftp.ncbi.nlm.nih.gov/genomes/all/GCF/000/390/325/GCF_000390325.2_Ntom_v01		
GCF_000226075.1	PRJNA225997	SAMN02981305	AEWC00000000.1	representative genome	4113	4113	Solanum tuberosum	cultivar=DM 1-3 516 R44		latest	Scaffold	Major	Full	2011/09/19	SolTub_3.0	Potato Genome Sequencing Consortium	GCA_000226075.1	different	ftp://ftp.ncbi.nlm.nih.gov/genomes/all/GCF/000/226/075/GCF_000226075.1_SolTub_3.0		
GCF_000504015.1	PRJNA285087	SAMN02742818	APLE00000000.1	representative genome	4155	4155	Erythranthe guttata	cultivar=IM62		latest	Scaffold	Major	Full	2014/04/02	Mimgu1_0	DOE Joint Genome Institute	GCA_000504015.1	different	ftp://ftp.ncbi.nlm.nih.gov/genomes/all/GCF/000/504/015/GCF_000504015.1_Mimgu1_0		
GCF_000512975.1	PRJNA268358	SAMN02981519	APMJ00000000.1	representative genome	4182	4182	Sesamum indicum	cultivar=Zhongzhi No. 13		latest	Chromosome	Major	Full	2014/01/06	S_indicum_v1.0	Oil Crops Research Institute of the Chinese Academy of Agricultural Sciences	GCA_000512975.1	different	ftp://ftp.ncbi.nlm.nih.gov/genomes/all/GCF/000/512/975/GCF_000512975.1_S_indicum_v1.0		
GCF_002127325.1	PRJNA396063	SAMN05868438	MNCJ00000000.1	representative genome	4232	4232	Helianthus annuus			latest	Chromosome	Major	Full	2017/05/12	HanXRQr1.0	International Consortium for Sunflower Genomics	GCA_002127325.1	different	ftp://ftp.ncbi.nlm.nih.gov/genomes/all/GCF/002/127/325/GCF_002127325.1_HanXRQr1.0		
GCF_000365185.1	PRJNA264089	SAMN02054413	AQOG00000000.1	representative genome	4432	4432	Nelumbo nucifera			latest	Scaffold	Major	Full	2013/08/08	Chinese Lotus 1.1	University of Illinois at Urbana-Champaign	GCA_000365185.2	different	ftp://ftp.ncbi.nlm.nih.gov/genomes/all/GCF/000/365/185/GCF_000365185.1_Chinese_Lotus_1.1		
GCF_001433935.1	PRJNA122	SAMD00000397		representative genome	39947	4530	Oryza sativa Japonica Group			latest	Chromosome	Major	Full	2015/10/10	IRGSP-1.0	National Institute of Agrobiological Sciences	GCA_001433935.1	different	ftp://ftp.ncbi.nlm.nih.gov/genomes/all/GCF/001/433/935/GCF_001433935.1_IRGSP-1.0		
GCF_000231095.1	PRJNA232125	SAMN02981362	AGAT00000000.1	representative genome	4533	4533	Oryza brachyantha			latest	Chromosome	Major	Full	2012/01/19	Oryza_brachyantha.v1.4b	The Institute of Genetics and Developmental Biology	GCA_000231095.2	identical	ftp://ftp.ncbi.nlm.nih.gov/genomes/all/GCF/000/231/095/GCF_000231095.1_Oryza_brachyantha.v1.4b		
GCF_000263155.2	PRJNA207554	SAMN02981383	AGNK00000000.2	representative genome	4555	4555	Setaria italica	strain=Yugu1		latest	Chromosome	Major	Full	2015/10/30	Setaria_italica_v2.0	JGI-PGF	GCA_000263155.2	different	ftp://ftp.ncbi.nlm.nih.gov/genomes/all/GCF/000/263/155/GCF_000263155.2_Setaria_italica_v2.0		
GCF_000003195.3	PRJNA38691	SAMN02953738	ABXC00000000.3	representative genome	4558	4558	Sorghum bicolor	cultivar=BTx623		latest	Chromosome	Major	Full	2017/04/07	Sorghum_bicolor_NCBIv3	Sorghum Consortium	GCA_000003195.3	different	ftp://ftp.ncbi.nlm.nih.gov/genomes/all/GCF/000/003/195/GCF_000003195.3_Sorghum_bicolor_NCBIv3		
GCF_000005005.2	PRJNA249074	SAMN04296295	LPUQ00000000.1	representative genome	4577	4577	Zea mays	cultivar=B73		latest	Chromosome	Major	Full	2017/02/07	B73 RefGen_v4	maizesequence	GCA_000005005.6	different	ftp://ftp.ncbi.nlm.nih.gov/genomes/all/GCF/000/005/005/GCF_000005005.2_B73_RefGen_v4		
GCF_001540865.1	PRJNA371634	SAMN04316497	LODP00000000.1	representative genome	4615	4615	Ananas comosus	cultivar=F153		latest	Chromosome	Major	Full	2016/03/14	ASM154086v1	Fujian Agriculture and Forestry University	GCA_001540865.1	different	ftp://ftp.ncbi.nlm.nih.gov/genomes/all/GCF/001/540/865/GCF_001540865.1_ASM154086v1		
GCF_000313855.2	PRJNA262552	SAMEA2272344	CAIC00000000.1	representative genome	214687	4641	Musa acuminata subsp. malaccensis	strain=Doubled-haploid Pahang (DH-Pahang)		latest	Chromosome	Minor	Full	2012/11/14	ASM31385v2	Genoscope/IG/CEA	GCA_000313855.2	identical	ftp://ftp.ncbi.nlm.nih.gov/genomes/all/GCF/000/313/855/GCF_000313855.2_ASM31385v2		
GCF_001876935.1	PRJNA376608	SAMN04606231	MPDI00000000.1	representative genome	4686	4686	Asparagus officinalis			latest	Chromosome	Major	Full	2017/02/06	Aspof.V1	University of Georgia	GCA_001876935.1	identical	ftp://ftp.ncbi.nlm.nih.gov/genomes/all/GCF/001/876/935/GCF_001876935.1_Aspof.V1		
GCF_000471905.2	PRJNA238126	SAMN02313977	AWHE00000000.1	representative genome	13333	13333	Amborella trichopoda			latest	Scaffold	Minor	Full	2013/09/30	AMTR1.0	Amborella Genome Sequencing Project	GCA_000471905.1	different	ftp://ftp.ncbi.nlm.nih.gov/genomes/all/GCF/000/471/905/GCF_000471905.2_AMTR1.0		
GCF_000005505.2	PRJNA74771	SAMN02981254	ADDN00000000.2	representative genome	15368	15368	Brachypodium distachyon	strain=Bd21		latest	Chromosome	Major	Full	2015/10/29	Brachypodium_distachyon_v2.0	JGI-PGF	GCA_000005505.2	different	ftp://ftp.ncbi.nlm.nih.gov/genomes/all/GCF/000/005/505/GCF_000005505.2_Brachypodium_distachyon_v2.0		
GCF_001406875.1	PRJNA256426	SAMEA3283146		representative genome	28526	28526	Solanum pennellii			latest	Chromosome	Major	Full	2014/07/11	SPENNV200	RWTH Aachen	GCA_001406875.2	different	ftp://ftp.ncbi.nlm.nih.gov/genomes/all/GCF/001/406/875/GCF_001406875.1_SPENNV200		
GCF_000463585.1	PRJNA268022	SAMN02981509	AOUI00000000.1	representative genome	28532	28532	Tarenaya hassleriana			latest	Scaffold	Major	Full	2013/09/05	ASM46358v1	Beijing Genomics Institution-shenzhen	GCA_000463585.1	identical	ftp://ftp.ncbi.nlm.nih.gov/genomes/all/GCF/000/463/585/GCF_000463585.1_ASM46358v1		
GCF_000612285.1	PRJNA335838	SAMN02981570	AYOE00000000.1	representative genome	29729	29729	Gossypium arboreum	cultivar=Shixiya1		latest	Chromosome	Major	Full	2015/09/28	Gossypium_arboreum_v1.0	BGI	GCA_000612285.2	different	ftp://ftp.ncbi.nlm.nih.gov/genomes/all/GCF/000/612/285/GCF_000612285.1_Gossypium_arboreum_v1.0		
GCF_000327365.1	PRJNA282644	SAMN02743920	ALYE00000000.1	representative genome	29730	29730	Gossypium raimondii			latest	Chromosome	Major	Full	2012/12/20	Graimondii2_0	DOE Joint Genome Institute	GCA_000327365.1	different	ftp://ftp.ncbi.nlm.nih.gov/genomes/all/GCF/000/327/365/GCF_000327365.1_Graimondii2_0		
GCF_000003745.3	PRJNA33471	SAMEA2272750	CAAP00000000.3	representative genome	29760	29760	Vitis vinifera	cultivar=PN40024		latest	Chromosome	Minor	Full	2009/12/07	12X	International Grape Genome Program	GCA_000003745.2	different	ftp://ftp.ncbi.nlm.nih.gov/genomes/all/GCF/000/003/745/GCF_000003745.3_12X		
GCF_001879475.1	PRJNA344313	SAMD00022859	BDFN00000000.1	representative genome	35883	35883	Ipomoea nil	cultivar=Tokyo-kokei standard		latest	Scaffold	Major	Full	2016/09/01	Asagao_1.1	Laboratory of biological diversity / Hoshino group, National Institute for Basic Biology, National Institutes of Natural Sciences	GCA_001879475.1	identical	ftp://ftp.ncbi.nlm.nih.gov/genomes/all/GCF/001/879/475/GCF_001879475.1_Asagao_1.1		
GCF_001957025.1	PRJNA371621	SAMN05426520	MCGU00000000.1	representative genome	169297	37682	Aegilops tauschii subsp. tauschii	cultivar=AL8/78		latest	Contig	Major	Full	2017/01/19	Aet_MR_1.0	Johns Hopkins University	GCA_001957025.1	different	ftp://ftp.ncbi.nlm.nih.gov/genomes/all/GCF/001/957/025/GCF_001957025.1_Aet_MR_1.0		
GCF_000151265.2	PRJNA51515	SAMN02953743	ACCP00000000.1	representative genome	564608	38833	Micromonas pusilla CCMP1545	strain=CCMP1545		latest	Scaffold	Minor	Full	2009/04/09	Micromonas pusilla CCMP1545 v2.0	Micromonas Genome Consortium	GCA_000151265.1	different	ftp://ftp.ncbi.nlm.nih.gov/genomes/all/GCF/000/151/265/GCF_000151265.2_Micromonas_pusilla_CCMP1545_v2.0		
GCF_002220235.1	PRJNA394752			representative genome	41875	41875	Bathycoccus prasinos	strain=RCC 1105		latest	Chromosome	Major	Full	2012/11/22	ASM222023v1	Genoscope	GCA_002220235.1	identical	ftp://ftp.ncbi.nlm.nih.gov/genomes/all/GCF/002/220/235/GCF_002220235.1_ASM222023v1		
GCF_002207925.1	PRJNA395588	SAMD00052827	BDGV00000000.1	representative genome	42229	42229	Prunus avium	cultivar=Satonishiki		latest	Scaffold	Major	Full	2017/06/12	PAV_r1.0	Kazusa DNA Research Institute	GCA_002207925.1	identical	ftp://ftp.ncbi.nlm.nih.gov/genomes/all/GCF/002/207/925/GCF_002207925.1_PAV_r1.0		
GCF_000413155.1	PRJNA249070	SAMN02981540	ATBV00000000.1	representative genome	42345	42345	Phoenix dactylifera	cultivar=Khalas		latest	Scaffold	Major	Full	2013/06/24	DPV01	Joint Center for Genomics Research	GCA_000413155.1	different	ftp://ftp.ncbi.nlm.nih.gov/genomes/all/GCF/000/413/155/GCF_000413155.1_DPV01		
GCF_000091205.1	PRJNA28057			representative genome	280699	45157	Cyanidioschyzon merolae strain 10D	strain=10D		latest	Complete Genome	Major	Full	2007/07/11	ASM9120v1	National Institute of Genetics, Japan	GCA_000091205.1	identical	ftp://ftp.ncbi.nlm.nih.gov/genomes/all/GCF/000/091/205/GCF_000091205.1_ASM9120v1		
GCF_001879085.1	PRJNA355166	SAMN04590212	MJEQ00000000.1	representative genome	49451	49451	Nicotiana attenuata	strain=UT		latest	Chromosome	Major	Full	2016/11/15	NIATTr2	Max Planck Institute for Chemical Ecology	GCA_001879085.1	identical	ftp://ftp.ncbi.nlm.nih.gov/genomes/all/GCF/001/879/085/GCF_001879085.1_NIATTr2		
GCF_001411555.1	PRJNA350852	SAMN03704235	LIHL00000000.1	representative genome	51240	51240	Juglans regia	cultivar=Chandler		latest	Scaffold	Major	Full	2015/10/22	wgs.5d	Johns Hopkins University	GCA_001411555.1	different	ftp://ftp.ncbi.nlm.nih.gov/genomes/all/GCF/001/411/555/GCF_001411555.1_wgs.5d		
GCF_000442705.1	PRJNA268357	SAMN02981535	ASJS00000000.1	representative genome	51953	51953	Elaeis guineensis			latest	Chromosome	Major	Full	2013/08/13	EG5	Orion Genomics	GCA_000442705.1	different	ftp://ftp.ncbi.nlm.nih.gov/genomes/all/GCF/000/442/705/GCF_000442705.1_EG5		
GCF_000184155.1	PRJNA66853	SAMN00120060	AEMH00000000.1	representative genome	101020	57918	Fragaria vesca subsp. vesca			latest	Chromosome	Major	Full	2011/02/24	FraVesHawaii_1.0	Virginia Bioinformatics Institute	GCA_000184155.1	different	ftp://ftp.ncbi.nlm.nih.gov/genomes/all/GCF/000/184/155/GCF_000184155.1_FraVesHawaii_1.0		
GCF_000004255.2	PRJNA49545	SAMN02981250	ADBK00000000.1	representative genome	81972	59689	Arabidopsis lyrata subsp. lyrata			latest	Scaffold	Minor	Full	2016/11/26	v.1.0	US DOE Joint Genome Institute (JGI-PGF)	GCA_000004255.1	different	ftp://ftp.ncbi.nlm.nih.gov/genomes/all/GCF/000/004/255/GCF_000004255.2_v.1.0		
GCF_001683475.1	PRJNA394242	SAMN04338310	LPWI00000000.1	representative genome	63459	63459	Chenopodium quinoa	cultivar=QQ74		latest	Scaffold	Major	Full	2017/05/19	ASM168347v1	King Abdullah University of Science and Technology	GCA_001683475.1	different	ftp://ftp.ncbi.nlm.nih.gov/genomes/all/GCF/001/683/475/GCF_001683475.1_ASM168347v1		
GCF_002303985.1	PRJNA407962	SAMN07563003	NSDW00000000.1	representative genome	66656	66656	Durio zibethinus	cultivar=Musang King	D1	latest	Scaffold	Major	Full	2017/09/15	Duzib1.0	Thorn Biosystems	GCA_002303985.1	identical	ftp://ftp.ncbi.nlm.nih.gov/genomes/all/GCF/002/303/985/GCF_002303985.1_Duzib1.0		
GCF_000214015.3	PRJNA51609	SAMEA3138397	CAID00000000.1	representative genome	70448	70448	Ostreococcus tauri	strain=RCC4221		latest	Chromosome	Major	Full	2014/10/02	version 140606	Laboratoire Arago, France	GCA_000214015.2	different	ftp://ftp.ncbi.nlm.nih.gov/genomes/all/GCF/000/214/015/GCF_000214015.3_version_140606		
GCF_000612305.1	PRJNA264012	SAMN02230419	AUSX00000000.1	representative genome	71139	71139	Eucalyptus grandis	cultivar=BRASUZ1		latest	Scaffold	Major	Full	2014/05/02	Egrandis1_0	Geneglob	GCA_000612305.1	different	ftp://ftp.ncbi.nlm.nih.gov/genomes/all/GCF/000/612/305/GCF_000612305.1_Egrandis1_0		
GCF_000478725.1	PRJNA231865	SAMN02981485	ANOA00000000.1	representative genome	72664	72664	Eutrema salsugineum			latest	Scaffold	Major	Full	2013/11/05	Eutsalg1_0	Joint Genome Institute	GCA_000478725.1	identical	ftp://ftp.ncbi.nlm.nih.gov/genomes/all/GCF/000/478/725/GCF_000478725.1_Eutsalg1_0		
GCF_000495115.1	PRJNA268063	SAMN02981499	AOFL00000000.1	representative genome	75702	75702	Populus euphratica			latest	Scaffold	Major	Full	2014/08/12	PopEup_1.0	Lanzhou University	GCA_000495115.1	different	ftp://ftp.ncbi.nlm.nih.gov/genomes/all/GCF/000/495/115/GCF_000495115.1_PopEup_1.0		
GCF_001263595.1	PRJNA382149	SAMN02046388	APLD00000000.1	representative genome	78828	78828	Phalaenopsis equestris			latest	Scaffold	Major	Full	2015/08/07	ASM126359v1	BGI-SZ	GCA_001263595.1	different	ftp://ftp.ncbi.nlm.nih.gov/genomes/all/GCF/001/263/595/GCF_001263595.1_ASM126359v1		
GCF_000375325.1	PRJNA230563	SAMN02981483	ANNY00000000.1	representative genome	81985	81985	Capsella rubella	cultivar=Monte Gargano		latest	Scaffold	Major	Full	2013/04/23	Caprub1_0	DOE Joint Genome Institute	GCA_000375325.1	identical	ftp://ftp.ncbi.nlm.nih.gov/genomes/all/GCF/000/375/325/GCF_000375325.1_Caprub1_0		
GCF_000493195.1	PRJNA232045	SAMN02389527	AMZM00000000.1	representative genome	85681	85681	Citrus clementina	cultivar=Clemenules		latest	Scaffold	Major	Full	2013/11/08	Citrus_clementina_v1.0	International Citrus Genome Consortium	GCA_000493195.1	identical	ftp://ftp.ncbi.nlm.nih.gov/genomes/all/GCF/000/493/195/GCF_000493195.1_Citrus_clementina_v1.0		
GCF_000143415.3	PRJNA50439	SAMN02981255	ADFJ00000000.1	representative genome	88036	88036	Selaginella moellendorffii			latest	Scaffold	Major	Full	2010/07/06	v1.0	Selaginella Consortium	GCA_000143415.2	identical	ftp://ftp.ncbi.nlm.nih.gov/genomes/all/GCF/000/143/415/GCF_000143415.3_v1.0		
GCF_000633955.1	PRJNA264159	SAMN02644653	JFZQ00000000.1	representative genome	90675	90675	Camelina sativa	cultivar=DH55		latest	Chromosome	Major	Full	2014/04/24	Cs	Agriculture & AgriFood Canada	GCA_000633955.1	identical	ftp://ftp.ncbi.nlm.nih.gov/genomes/all/GCF/000/633/955/GCF_000633955.1_Cs		
GCF_000346735.1	PRJNA246160	SAMN02981503	AOHF00000000.1	representative genome	102107	102107	Prunus mume		4	latest	Chromosome	Major	Full	2014/02/28	P.mume_V1.0	BGI	GCA_000346735.1	different	ftp://ftp.ncbi.nlm.nih.gov/genomes/all/GCF/000/346/735/GCF_000346735.1_P.mume_V1.0		
GCF_002168275.1	PRJNA389730	SAMN06806157	NHTG00000000.1	representative genome	108875	108875	Herrania umbratica	cultivar=Fairchild		latest	Scaffold	Major	Full	2017/06/05	ASM216827v2	Mars, Incorporated	GCA_002168275.2	different	ftp://ftp.ncbi.nlm.nih.gov/genomes/all/GCF/002/168/275/GCF_002168275.1_ASM216827v2		
GCF_000341285.1	PRJNA221242	SAMN00011278	ADNM00000000.2	representative genome	130081	130081	Galdieria sulphuraria	strain=074W		latest	Scaffold	Major	Full	2013/02/25	ASM34128v1	Galdieria sulphuraria Genome Project	GCA_000341285.1	identical	ftp://ftp.ncbi.nlm.nih.gov/genomes/all/GCF/000/341/285/GCF_000341285.1_ASM34128v1		
GCF_000817695.2	PRJNA316327	SAMN02982871	JQIN00000000.1	representative genome	130453	130453	Arachis duranensis	cultivar=V14167		latest	Chromosome	Major	Full	2017/04/25	Aradu1.1	Iowa State University	GCA_000817695.2	identical	ftp://ftp.ncbi.nlm.nih.gov/genomes/all/GCF/000/817/695/GCF_000817695.2_Aradu1.1		
GCF_000816755.2	PRJNA316874	SAMN02982874	JQIO00000000.1	representative genome	130454	130454	Arachis ipaensis	cultivar=K30076		latest	Chromosome	Major	Full	2017/04/25	Araip1.1	Iowa State University	GCA_000816755.2	identical	ftp://ftp.ncbi.nlm.nih.gov/genomes/all/GCF/000/816/755/GCF_000816755.2_Araip1.1		
GCF_001605985.1	PRJNA382192	SAMN03083363	JSDN00000000.1	representative genome	142615	142615	Dendrobium catenatum			latest	Scaffold	Major	Full	2016/02/26	ASM160598v1	The National Orchid Conservation Center of China, and The Orchid Conservation and Research Center of Shenzhen	GCA_001605985.1	different	ftp://ftp.ncbi.nlm.nih.gov/genomes/all/GCF/001/605/985/GCF_001605985.1_ASM160598v1		
GCF_000611645.1	PRJNA293989	SAMN02981574	AYTC00000000.1	representative genome	145388	145388	Monoraphidium neglectum	strain=SAG 48.87		latest	Scaffold	Major	Full	2015/02/26	mono_v1	Bielefeld University	GCA_000611645.1	identical	ftp://ftp.ncbi.nlm.nih.gov/genomes/all/GCF/000/611/645/GCF_000611645.1_mono_v1		assembly from type material
GCF_000741045.1	PRJNA301363	SAMN02720863	JJMO00000000.1	representative genome	3916	157791	Vigna radiata var. radiata	cultivar=VC1973A		latest	Chromosome	Major	Full	2015/10/28	Vradiata_ver6	Seoul National University	GCA_000741045.2	different	ftp://ftp.ncbi.nlm.nih.gov/genomes/all/GCF/000/741/045/GCF_000741045.1_Vradiata_ver6		
GCF_000511025.2	PRJNA268352	SAMN02182557	AYZS00000000.2	representative genome	3555	161934	Beta vulgaris subsp. vulgaris			latest	Chromosome	Major	Full	2015/07/07	RefBeet-1.2.2	Beta vulgaris resource	GCA_000511025.2	different	ftp://ftp.ncbi.nlm.nih.gov/genomes/all/GCF/000/511/025/GCF_000511025.2_RefBeet-1.2.2		
GCF_000696525.1	PRJNA279873	SAMN02799222	AFEW00000000.1	representative genome	180498	180498	Jatropha curcas	cultivar=GZQX0401		latest	Scaffold	Major	Full	2014/06/02	JatCur_1.0	Chinese Academy of Sciences	GCA_000696525.1	different	ftp://ftp.ncbi.nlm.nih.gov/genomes/all/GCF/000/696/525/GCF_000696525.1_JatCur_1.0		
GCF_000315295.1	PRJNA259338	SAMN01797448	AJSU00000000.1	representative genome	225117	225117	Pyrus x bretschneideri	cultivar=Dangshansuli		latest	Scaffold	Major	Full	2012/12/03	Pbr_v1.0	Nanjing Agricultural University	GCA_000315295.1	identical	ftp://ftp.ncbi.nlm.nih.gov/genomes/all/GCF/000/315/295/GCF_000315295.1_Pbr_v1.0		
GCF_000092065.1	PRJNA19407	SAMN03081420		representative genome	436017	242159	Ostreococcus lucimarinus CCE9901	strain=CCE9901		latest	Complete Genome	Major	Full	2007/04/10	ASM9206v1	US DOE Joint Genome Institute	GCA_000092065.1	identical	ftp://ftp.ncbi.nlm.nih.gov/genomes/all/GCF/000/092/065/GCF_000092065.1_ASM9206v1		
GCF_000258705.1	PRJNA221161	SAMN02744078	AGSI00000000.1	representative genome	574566	248742	Coccomyxa subellipsoidea C-169	strain=C-169		latest	Contig	Major	Full	2012/04/13	Coccomyxa subellipsoidae v2.0	JGI	GCA_000258705.1	identical	ftp://ftp.ncbi.nlm.nih.gov/genomes/all/GCF/000/258/705/GCF_000258705.1_Coccomyxa_subellipsoidae_v2.0		
GCF_000090985.2	PRJNA39769	SAMN03081421		representative genome	296587	296587	Micromonas commoda	strain=RCC299		latest	Complete Genome	Major	Full	2009/04/10	ASM9098v2	Micromonas genome consortium	GCA_000090985.2	identical	ftp://ftp.ncbi.nlm.nih.gov/genomes/all/GCF/000/090/985/GCF_000090985.2_ASM9098v2		assembly from type material
GCF_000826755.1	PRJNA315994	SAMN02918186	JREP00000000.1	representative genome	326968	326968	Ziziphus jujuba	cultivar=Dongzao		latest	Chromosome	Major	Full	2015/02/06	ZizJuj_1.1	Agricultural University of Hebei	GCA_000826755.1	identical	ftp://ftp.ncbi.nlm.nih.gov/genomes/all/GCF/000/826/755/GCF_000826755.1_ZizJuj_1.1		
GCF_000147415.1	PRJNA223657	SAMN02744065	ADIC00000000.1	representative genome	554065	554065	Chlorella variabilis	strain=NC64A		latest	Scaffold	Major	Full	2010/09/16	v 1.0	JGI	GCA_000147415.1	identical	ftp://ftp.ncbi.nlm.nih.gov/genomes/all/GCF/000/147/415/GCF_000147415.1_v_1.0		
GCF_000414095.1	PRJNA263939	SAMN02141246	ATGF00000000.1	representative genome	981085	981085	Morus notabilis			latest	Scaffold	Major	Full	2013/08/07	ASM41409v2	BGI	GCA_000414095.2	identical	ftp://ftp.ncbi.nlm.nih.gov/genomes/all/GCF/000/414/095/GCF_000414095.1_ASM41409v2		
