#   See ftp://ftp.ncbi.nlm.nih.gov/genomes/README_assembly_summary.txt for a description of the columns in this file.
# assembly_accession	bioproject	biosample	wgs_master	refseq_category	taxid	species_taxid	organism_name	infraspecific_name	isolate	version_status	assembly_level	release_type	genome_rep	seq_rel_date	asm_name	submitter	gbrs_paired_asm	paired_asm_comp	ftp_path	excluded_from_refseq	relation_to_type_material
GCF_000165045.1	PRJNA236996	SAMN00000800	AAVX00000000.2	representative genome	7868	7868	Callorhinchus milii		IMCB2004	latest	Scaffold	Major	Full	2013/12/11	Callorhinchus_milii-6.1.3	Institute of Molecular and Cell Biology, Singapore	GCA_000165045.2	different	ftp://ftp.ncbi.nlm.nih.gov/genomes/all/GCF/000/165/045/GCF_000165045.1_Callorhinchus_milii-6.1.3		
GCF_000225785.1	PRJNA219830	SAMN00138723	AFYH00000000.1	representative genome	7897	7897	Latimeria chalumnae		SAIAB 97564	latest	Scaffold	Major	Full	2011/09/12	LatCha1	Broad Institute	GCA_000225785.1	different	ftp://ftp.ncbi.nlm.nih.gov/genomes/all/GCF/000/225/785/GCF_000225785.1_LatCha1		
GCF_000242695.1	PRJNA221149	SAMN00706774	AHAT00000000.1	representative genome	7918	7918	Lepisosteus oculatus		Spotted Gar 1	latest	Chromosome	Major	Full	2012/01/13	LepOcu1	Broad Institute	GCA_000242695.1	different	ftp://ftp.ncbi.nlm.nih.gov/genomes/all/GCF/000/242/695/GCF_000242695.1_LepOcu1		
GCF_000966335.1	PRJNA286317	SAMN03154066	JZKK00000000.1	representative genome	7950	7950	Clupea harengus			latest	Scaffold	Major	Full	2015/03/30	ASM96633v1	BGI	GCA_000966335.1	different	ftp://ftp.ncbi.nlm.nih.gov/genomes/all/GCF/000/966/335/GCF_000966335.1_ASM96633v1		
GCF_000002035.6	PRJNA13922	SAMN06930106		reference genome	7955	7955	Danio rerio			latest	Chromosome	Major	Full	2017/05/09	GRCz11	Genome Reference Consortium	GCA_000002035.4	different	ftp://ftp.ncbi.nlm.nih.gov/genomes/all/GCF/000/002/035/GCF_000002035.6_GRCz11		
GCF_000951615.1	PRJNA352247	SAMEA2757102		representative genome	7962	7962	Cyprinus carpio			latest	Chromosome	Major	Full	2014/11/03	common carp genome	CHINESE ACADEMY OF FISHERY SCIENCE	GCA_000951615.2	different	ftp://ftp.ncbi.nlm.nih.gov/genomes/all/GCF/000/951/615/GCF_000951615.1_common_carp_genome		
GCF_000372685.2	PRJNA237016	SAMN02981523	APWO00000000.2	representative genome	7994	7994	Astyanax mexicanus			latest	Chromosome	Major	Full	2017/09/25	Astyanax_mexicanus-2.0	Washington University School of Medince	GCA_000372685.2	identical	ftp://ftp.ncbi.nlm.nih.gov/genomes/all/GCF/000/372/685/GCF_000372685.2_Astyanax_mexicanus-2.0		
GCF_001660625.1	PRJNA327588	SAMN03486842	LBML00000000.1	representative genome	7998	7998	Ictalurus punctatus	breed=USDA103		latest	Chromosome	Major	Full	2016/06/21	IpCoco_1.2	Auburn University	GCA_001660625.1	different	ftp://ftp.ncbi.nlm.nih.gov/genomes/all/GCF/001/660/625/GCF_001660625.1_IpCoco_1.2		
GCF_000721915.3	PRJNA268215	SAMN02439989	AZJR00000000.3	representative genome	8010	8010	Esox lucius		CL-BC-CA-002	latest	Chromosome	Major	Full	2017/01/18	Eluc_V3	Ben F Koop, Jong S Leong	GCA_000721915.3	different	ftp://ftp.ncbi.nlm.nih.gov/genomes/all/GCF/000/721/915/GCF_000721915.3_Eluc_V3		
GCF_002021735.1	PRJNA378663	SAMN05991263	MPKV00000000.1	representative genome	8019	8019	Oncorhynchus kisutch		150728-3	latest	Chromosome	Major	Full	2017/03/06	Okis_V1	University of Victoria	GCA_002021735.1	different	ftp://ftp.ncbi.nlm.nih.gov/genomes/all/GCF/002/021/735/GCF_002021735.1_Okis_V1		
GCF_002163495.1	PRJNA390662	SAMN05449231	MSJN00000000.1	representative genome	8022	8022	Oncorhynchus mykiss		Swanson	latest	Chromosome	Major	Full	2017/06/02	Omyk_1.0	USDA/ARS	GCA_002163495.1	different	ftp://ftp.ncbi.nlm.nih.gov/genomes/all/GCF/002/163/495/GCF_002163495.1_Omyk_1.0		
GCF_000233375.1	PRJNA287919	SAMN02749551	AGKD00000000.4	representative genome	8030	8030	Salmo salar	breed=double haploid	Sally	latest	Chromosome	Major	Full	2015/06/10	ICSASG_v2	International Cooperation to Sequence the Atlantic Salmon Genome	GCA_000233375.4	different	ftp://ftp.ncbi.nlm.nih.gov/genomes/all/GCF/000/233/375/GCF_000233375.1_ICSASG_v2		
GCF_000826765.1	PRJNA286680	SAMN03277211	JXMV00000000.1	representative genome	8078	8078	Fundulus heteroclitus		Maine	latest	Scaffold	Major	Full	2015/01/21	Fundulus_heteroclitus-3.0.2	The Genome Institute at Washington University School of Medicine	GCA_000826765.1	different	ftp://ftp.ncbi.nlm.nih.gov/genomes/all/GCF/000/826/765/GCF_000826765.1_Fundulus_heteroclitus-3.0.2		
GCF_000633615.1	PRJNA232869	SAMN02404645	AZHG00000000.1	representative genome	8081	8081	Poecilia reticulata	strain=Guanapo		latest	Chromosome	Major	Full	2014/04/28	Guppy_female_1.0+MT	Max Planck Institute for Developmental Biology	GCA_000633615.2	identical	ftp://ftp.ncbi.nlm.nih.gov/genomes/all/GCF/000/633/615/GCF_000633615.1_Guppy_female_1.0_MT		
GCF_000241075.1	PRJNA220265	SAMN02981361	AGAJ00000000.1	representative genome	8083	8083	Xiphophorus maculatus	strain=JP 163 A	XMAC-090115_JP163A	latest	Scaffold	Major	Full	2012/01/06	Xiphophorus_maculatus-4.4.2	The Genome Institute,  Washington University at St. Louis	GCA_000241075.1	different	ftp://ftp.ncbi.nlm.nih.gov/genomes/all/GCF/000/241/075/GCF_000241075.1_Xiphophorus_maculatus-4.4.2		
GCF_000313675.1	PRJNA183868	SAMD00036523	BAAF00000000.4	representative genome	8090	8090	Oryzias latipes	strain=Hd-rR		latest	Chromosome	Major	Full	2007/05/09	ASM31367v1	Medaka genome sequencing project	GCA_000313675.1	different	ftp://ftp.ncbi.nlm.nih.gov/genomes/all/GCF/000/313/675/GCF_000313675.1_ASM31367v1		
GCF_001858045.1	PRJNA354796	SAMN05859795	MKQE00000000.1	representative genome	8128	8128	Oreochromis niloticus		F11D_XX	latest	Chromosome	Major	Full	2016/11/21	ASM185804v2	University of Maryland	GCA_001858045.2	different	ftp://ftp.ncbi.nlm.nih.gov/genomes/all/GCF/001/858/045/GCF_001858045.1_ASM185804v2		
GCF_000239415.1	PRJNA220165	SAMN00139641	AFNZ00000000.1	representative genome	8153	8153	Haplochromis burtoni		A. burtoni ID#24_Hofmann	latest	Scaffold	Major	Full	2011/12/22	AstBur1.0	Broad Institute	GCA_000239415.1	identical	ftp://ftp.ncbi.nlm.nih.gov/genomes/all/GCF/000/239/415/GCF_000239415.1_AstBur1.0		
GCF_001640805.1	PRJNA345597	SAMN04026617	LLXD00000000.1	representative genome	8187	8187	Lates calcarifer		ASB-BC8	latest	Scaffold	Major	Full	2016/05/09	ASM164080v1	Temasek Life Sciences Laboratory	GCA_001640805.1	different	ftp://ftp.ncbi.nlm.nih.gov/genomes/all/GCF/001/640/805/GCF_001640805.1_ASM164080v1		
GCF_000735185.1	PRJNA268318	SAMN02206445	AZAD00000000.1	representative genome	8208	8208	Notothenia coriiceps		Sejong01	latest	Scaffold	Major	Full	2014/07/29	NC01	Antarctic Fish Genome Project	GCA_000735185.1	different	ftp://ftp.ncbi.nlm.nih.gov/genomes/all/GCF/000/735/185/GCF_000735185.1_NC01		
GCF_001970005.1	PRJNA369269	SAMN05817825	MPLB00000000.1	representative genome	8255	8255	Paralichthys olivaceus	breed=gynogenesis		latest	Scaffold	Major	Full	2017/01/24	Flounder_ref_guided_V1.0	Tsinghua University	GCA_001970005.2	different	ftp://ftp.ncbi.nlm.nih.gov/genomes/all/GCF/001/970/005/GCF_001970005.1_Flounder_ref_guided_V1.0		
GCF_001663975.1	PRJNA338693	SAMN04518361	LYTH00000000.1	representative genome	8355	8355	Xenopus laevis	strain=J		latest	Chromosome	Major	Full	2016/08/09	Xenopus_laevis_v2	International Xenopus Sequencing Consortium	GCA_001663975.1	different	ftp://ftp.ncbi.nlm.nih.gov/genomes/all/GCF/001/663/975/GCF_001663975.1_Xenopus_laevis_v2		
GCF_000004195.3	PRJNA205740	SAMN00000117	AAMC00000000.3	representative genome	8364	8364	Xenopus tropicalis	strain=Nigerian		latest	Chromosome	Major	Full	2016/07/13	Xenopus_tropicalis_v9.1	DOE Joint Genome Institute	GCA_000004195.3	different	ftp://ftp.ncbi.nlm.nih.gov/genomes/all/GCF/000/004/195/GCF_000004195.3_Xenopus_tropicalis_v9.1		
GCF_000344595.1	PRJNA234097	SAMN02981410	AJIM00000000.1	representative genome	8469	8469	Chelonia mydas			latest	Scaffold	Major	Full	2013/03/18	CheMyd_1.0	BGI	GCA_000344595.1	different	ftp://ftp.ncbi.nlm.nih.gov/genomes/all/GCF/000/344/595/GCF_000344595.1_CheMyd_1.0		
GCF_000241765.3	PRJNA210179	SAMN02713681	AHGY00000000.2	representative genome	8478	8479	Chrysemys picta bellii		RCT428	latest	Chromosome	Major	Full	2014/03/31	Chrysemys_picta_bellii-3.0.3	Painted turtle genome sequencing consortium	GCA_000241765.2	different	ftp://ftp.ncbi.nlm.nih.gov/genomes/all/GCF/000/241/765/GCF_000241765.3_Chrysemys_picta_bellii-3.0.3		
GCF_000281125.3	PRJNA221578	SAMN02981418	AKHW00000000.3	representative genome	8496	8496	Alligator mississippiensis		KSC_2009_1	latest	Scaffold	Major	Full	2016/03/28	ASM28112v4	International Crocodilian Genomes Working Group	GCA_000281125.4	different	ftp://ftp.ncbi.nlm.nih.gov/genomes/all/GCF/000/281/125/GCF_000281125.3_ASM28112v4		
GCF_001723895.1	PRJNA357059	SAMN03102602	MDVP00000000.1	representative genome	8502	8502	Crocodylus porosus		Cpor-Errol	latest	Scaffold	Major	Full	2016/09/13	CroPor_comp1	Mississippi State University	GCA_001723895.1	different	ftp://ftp.ncbi.nlm.nih.gov/genomes/all/GCF/001/723/895/GCF_001723895.1_CroPor_comp1		
GCF_000698965.1	PRJNA263340	SAMN02316164	JJRT00000000.1	representative genome	441894	8801	Struthio camelus australis		BGI_N308	latest	Scaffold	Major	Full	2014/06/06	ASM69896v1	BGI	GCA_000698965.1	different	ftp://ftp.ncbi.nlm.nih.gov/genomes/all/GCF/000/698/965/GCF_000698965.1_ASM69896v1		
GCF_001039765.1	PRJNA294519	SAMEA2560515		representative genome	202946	8822	Apteryx australis mantelli			latest	Scaffold	Major	Full	2015/06/21	AptMant0	MPI-EVA	GCA_001039765.1	different	ftp://ftp.ncbi.nlm.nih.gov/genomes/all/GCF/001/039/765/GCF_001039765.1_AptMant0		
GCF_000355885.1	PRJNA208071	SAMN00011637	ADON00000000.1	representative genome	8839	8839	Anas platyrhynchos	breed=Pekin duck		latest	Scaffold	Major	Full	2013/04/26	BGI_duck_1.0	State Key Laboratory for Agrobiotechnology, China Agricultural University, Beijing	GCA_000355885.1	different	ftp://ftp.ncbi.nlm.nih.gov/genomes/all/GCF/000/355/885/GCF_000355885.1_BGI_duck_1.0		
GCF_000971095.1	PRJNA290577	SAMN01830643	AOGC00000000.1	representative genome	381198	8845	Anser cygnoides domesticus	breed=Zhedong		latest	Scaffold	Major	Full	2015/04/08	AnsCyg_PRJNA183603_v1.0	Anser cygnoides Genome consortium	GCA_000971095.1	different	ftp://ftp.ncbi.nlm.nih.gov/genomes/all/GCF/000/971/095/GCF_000971095.1_AnsCyg_PRJNA183603_v1.0		
GCF_000747805.1	PRJNA264987	SAMN03018471	AVOS00000000.1	representative genome	8897	8897	Chaetura pelagica		M959	latest	Scaffold	Major	Full	2014/09/04	ChaPel_1.0	BGI	GCA_000747805.1	identical	ftp://ftp.ncbi.nlm.nih.gov/genomes/all/GCF/000/747/805/GCF_000747805.1_ChaPel_1.0		
GCF_000337935.1	PRJNA217047	SAMN02981415	AKCR00000000.1	representative genome	8932	8932	Columba livia	breed=Danish Tumbler		latest	Scaffold	Major	Full	2013/02/11	Cliv_1.0	BGI	GCA_000337935.1	different	ftp://ftp.ncbi.nlm.nih.gov/genomes/all/GCF/000/337/935/GCF_000337935.1_Cliv_1.0		
GCF_000337955.1	PRJNA198010	SAMN02981425	AKMT00000000.1	representative genome	8954	8954	Falco peregrinus			latest	Scaffold	Major	Full	2013/02/05	F_peregrinus_v1.0	BGI	GCA_000337955.1	different	ftp://ftp.ncbi.nlm.nih.gov/genomes/all/GCF/000/337/955/GCF_000337955.1_F_peregrinus_v1.0		
GCF_000766835.1	PRJNA277694	SAMN03079786	JRUM00000000.1	representative genome	216574	8962	Aquila chrysaetos canadensis		GSEH35GE	latest	Scaffold	Major	Full	2014/10/14	Aquila_chrysaetos-1.0.2	The Genome Institute - Washington University School of Medicine	GCA_000766835.1	different	ftp://ftp.ncbi.nlm.nih.gov/genomes/all/GCF/000/766/835/GCF_000766835.1_Aquila_chrysaetos-1.0.2		
GCF_000691405.1	PRJNA263514	SAMN02333670	JJRL00000000.1	representative genome	8969	8969	Haliaeetus albicilla		BGI_N329	latest	Scaffold	Major	Full	2014/05/15	ASM69140v1	BGI	GCA_000691405.1	identical	ftp://ftp.ncbi.nlm.nih.gov/genomes/all/GCF/000/691/405/GCF_000691405.1_ASM69140v1		
GCF_002078875.1	PRJNA383663	SAMN05969731	MTSP00000000.1	representative genome	8996	8996	Numida meleagris	breed=g44 Domestic line	19003	latest	Chromosome	Major	Full	2017/06/01	NumMel1.0	INRA	GCA_002078875.2	identical	ftp://ftp.ncbi.nlm.nih.gov/genomes/all/GCF/002/078/875/GCF_002078875.1_NumMel1.0		
GCF_000002315.4	PRJNA10808	SAMN02981218	AADN00000000.4	representative genome	9031	9031	Gallus gallus	breed=Red Jungle fowl, inbred line UCD001	RJF #256	latest	Chromosome	Major	Full	2015/12/16	Gallus_gallus-5.0	International Chicken Genome Consortium	GCA_000002315.3	different	ftp://ftp.ncbi.nlm.nih.gov/genomes/all/GCF/000/002/315/GCF_000002315.4_Gallus_gallus-5.0		
GCF_000146605.2	PRJNA62397	SAMN02981253	ADDD00000000.2	representative genome	9103	9103	Meleagris gallopavo	breed=Aviagen turkey brand Nicholas breeding stock	NT-WF06-2002-E0010	latest	Chromosome	Major	Full	2014/11/24	Turkey_5.0	Turkey Genome Consortium	GCA_000146605.3	identical	ftp://ftp.ncbi.nlm.nih.gov/genomes/all/GCF/000/146/605/GCF_000146605.2_Turkey_5.0		
GCF_000534875.1	PRJNA236325	SAMEA3138919	CAVT000000000.1	representative genome	9135	9135	Serinus canaria			latest	Scaffold	Major	Full	2014/01/15	SCA1	MPI MOLGEN	GCA_000534875.1	different	ftp://ftp.ncbi.nlm.nih.gov/genomes/all/GCF/000/534/875/GCF_000534875.1_SCA1		
GCF_001522545.2	PRJNA312399	SAMN03083587	JRXK00000000.1	representative genome	9157	9157	Parus major		Abel	latest	Chromosome	Major	Full	2016/06/30	Parus_major1.1	Animal Breeding and Genomics Centre, Wageningen University	GCA_001522545.2	identical	ftp://ftp.ncbi.nlm.nih.gov/genomes/all/GCF/001/522/545/GCF_001522545.2_Parus_major1.1		
GCF_001447265.1	PRJNA304638	SAMN04029017	LNCF00000000.1	representative genome	9172	9172	Sturnus vulgaris		715	latest	Scaffold	Major	Full	2015/11/20	Sturnus_vulgaris-1.0	McDonnell Genome Institute - Washington University School of Medicine	GCA_001447265.1	identical	ftp://ftp.ncbi.nlm.nih.gov/genomes/all/GCF/001/447/265/GCF_001447265.1_Sturnus_vulgaris-1.0		
GCF_000708925.1	PRJNA261839	SAMN02339889	JMFI00000000.1	representative genome	9209	9209	Phalacrocorax carbo		BGI_N336	latest	Scaffold	Major	Full	2014/06/17	ASM70892v1	BGI	GCA_000708925.1	identical	ftp://ftp.ncbi.nlm.nih.gov/genomes/all/GCF/000/708/925/GCF_000708925.1_ASM70892v1		
GCF_000699145.1	PRJNA261081	SAMN02596600	JMFQ00000000.1	representative genome	9233	9233	Aptenodytes forsteri		BGI_AS27	latest	Scaffold	Major	Full	2014/06/06	ASM69914v1	BGI	GCA_000699145.1	identical	ftp://ftp.ncbi.nlm.nih.gov/genomes/all/GCF/000/699/145/GCF_000699145.1_ASM69914v1		
GCF_000699105.1	PRJNA261076	SAMN02596601	JMFP00000000.1	representative genome	9238	9238	Pygoscelis adeliae		BGI_AS28	latest	Scaffold	Major	Full	2014/06/06	ASM69910v1	BGI	GCA_000699105.1	different	ftp://ftp.ncbi.nlm.nih.gov/genomes/all/GCF/000/699/105/GCF_000699105.1_ASM69910v1		
GCF_000699085.1	PRJNA253828	SAMN02265252	JJRV00000000.1	representative genome	9244	9244	Calypte anna		BGI_N300	latest	Scaffold	Major	Full	2014/06/06	ASM69908v1	BGI	GCA_000699085.1	identical	ftp://ftp.ncbi.nlm.nih.gov/genomes/all/GCF/000/699/085/GCF_000699085.1_ASM69908v1		
GCF_000238935.1	PRJNA197262	SAMN02981360	AGAI00000000.1	representative genome	13146	13146	Melopsittacus undulatus			latest	Scaffold	Major	Full	2012/01/02	Melopsittacus_undulatus_6.3	The Genome Institute,  Washington University at St. Louis	GCA_000238935.1	different	ftp://ftp.ncbi.nlm.nih.gov/genomes/all/GCF/000/238/935/GCF_000238935.1_Melopsittacus_undulatus_6.3		
GCF_000230535.1	PRJNA221645	SAMN02981371	AGCU00000000.1	representative genome	13735	13735	Pelodiscus sinensis		Daiwa-1	latest	Scaffold	Major	Full	2012/07/24	PelSin_1.0	P. sinensis genome project consortium	GCA_000230535.1	different	ftp://ftp.ncbi.nlm.nih.gov/genomes/all/GCF/000/230/535/GCF_000230535.1_PelSin_1.0		
GCF_000090745.1	PRJNA60547	SAMN02981230	AAWZ00000000.2	representative genome	28377	28377	Anolis carolinensis			latest	Chromosome	Major	Full	2011/01/10	AnoCar2.0	Broad Institute	GCA_000090745.2	identical	ftp://ftp.ncbi.nlm.nih.gov/genomes/all/GCF/000/090/745/GCF_000090745.1_AnoCar2.0		
GCF_000732505.1	PRJNA308224	SAMN02736898	JPKM00000000.1	representative genome	28743	28743	Cyprinodon variegatus		N-32	latest	Scaffold	Major	Full	2015/10/01	C_variegatus-1.0	Aquatic Genome Models	GCA_000732505.1	different	ftp://ftp.ncbi.nlm.nih.gov/genomes/all/GCF/000/732/505/GCF_000732505.1_C_variegatus-1.0		
GCF_000692075.1	PRJNA263612	SAMN02302474	JMFL00000000.1	representative genome	30419	30419	Opisthocomus hoazin		BGI_N306	latest	Scaffold	Major	Full	2014/05/19	ASM69207v1	BGI	GCA_000692075.1	identical	ftp://ftp.ncbi.nlm.nih.gov/genomes/all/GCF/000/692/075/GCF_000692075.1_ASM69207v1		
GCF_000690835.1	PRJNA261828	SAMN02324803	JJRN00000000.1	representative genome	30455	30455	Fulmarus glacialis		BGI_N327	latest	Scaffold	Major	Full	2014/05/13	ASM69083v1	BGI	GCA_000690835.1	identical	ftp://ftp.ncbi.nlm.nih.gov/genomes/all/GCF/000/690/835/GCF_000690835.1_ASM69083v1		
GCF_000180615.1	PRJNA166939	SAMEA3138310	CAAB00000000.2	representative genome	31033	31033	Takifugu rubripes			latest	Chromosome	Major	Full	2011/10/13	FUGU5	The Fugu Genome Sequencing Consortium	GCA_000180615.2	different	ftp://ftp.ncbi.nlm.nih.gov/genomes/all/GCF/000/180/615/GCF_000180615.1_FUGU5		
GCF_000239395.1	PRJNA232513	SAMN00139653	AFNY00000000.1	representative genome	32507	32507	Neolamprologus brichardi		N.brichardi 1_Salsburger	latest	Scaffold	Major	Full	2011/12/22	NeoBri1.0	Broad Institute	GCA_000239395.1	different	ftp://ftp.ncbi.nlm.nih.gov/genomes/all/GCF/000/239/395/GCF_000239395.1_NeoBri1.0		
GCF_001077635.1	PRJNA294278	SAMN03759628	LFLD00000000.1	representative genome	35019	35019	Thamnophis sirtalis		EDBJR-23777	latest	Scaffold	Major	Full	2015/06/26	Thamnophis_sirtalis-6.0	The Genome Institute at Washington University School of Medicine (WUGSC)	GCA_001077635.2	identical	ftp://ftp.ncbi.nlm.nih.gov/genomes/all/GCF/001/077/635/GCF_001077635.1_Thamnophis_sirtalis-6.0		
GCF_000687375.1	PRJNA253833	SAMN02339887	JJRG00000000.1	representative genome	36300	36300	Pelecanus crispus		BGI_N334	latest	Scaffold	Major	Full	2014/05/09	ASM68737v1	BGI	GCA_000687375.1	identical	ftp://ftp.ncbi.nlm.nih.gov/genomes/all/GCF/000/687/375/GCF_000687375.1_ASM68737v1		
GCF_001649575.1	PRJNA326783	SAMN04622665	LWHD00000000.1	representative genome	37003	37003	Kryptolebias marmoratus		JLee-2015	latest	Scaffold	Major	Full	2016/05/22	ASM164957v1	Sungkyunkwan University	GCA_001649575.1	different	ftp://ftp.ncbi.nlm.nih.gov/genomes/all/GCF/001/649/575/GCF_001649575.1_ASM164957v1		
GCF_000690875.1	PRJNA261843	SAMN02324832	JJRM00000000.1	representative genome	37040	37040	Gavia stellata		BGI_N328	latest	Scaffold	Major	Full	2014/05/13	ASM69087v1	BGI	GCA_000690875.1	different	ftp://ftp.ncbi.nlm.nih.gov/genomes/all/GCF/000/690/875/GCF_000690875.1_ASM69087v1		
GCF_000455745.1	PRJNA221633	SAMN02981559	AVPB00000000.1	representative genome	38654	38654	Alligator sinensis			latest	Scaffold	Major	Full	2013/08/29	ASM45574v1	BGI-shenzhen	GCA_000455745.1	different	ftp://ftp.ncbi.nlm.nih.gov/genomes/all/GCF/000/455/745/GCF_000455745.1_ASM45574v1		
GCF_002197715.1	PRJNA391487	SAMN06283872	MUZQ00000000.1	representative genome	299123	40157	Lonchura striata domestica		white83orange57	latest	Scaffold	Major	Full	2017/06/19	LonStrDom1	HHMI/UCSF	GCA_002197715.1	different	ftp://ftp.ncbi.nlm.nih.gov/genomes/all/GCF/002/197/715/GCF_002197715.1_LonStrDom1		
GCF_002260705.1	PRJNA412910	SAMD00083043	BDQW00000000.1	representative genome	41447	41447	Seriola dumerili		Sdu_G_001	latest	Scaffold	Major	Full	2017/08/03	Sdu_1.0	Genomic breeding group, Research Center for Aquatic Breeding, National Research Institute of aquaculture, FRA	GCA_002260705.1	different	ftp://ftp.ncbi.nlm.nih.gov/genomes/all/GCF/002/260/705/GCF_002260705.1_Sdu_1.0		
GCF_001682695.1	PRJNA331139	SAMN04522165	MAUM00000000.1	representative genome	42514	42514	Pygocentrus nattereri		Pna-1	latest	Scaffold	Major	Full	2016/07/12	Pygocentrus_nattereri-1.0.2	McDonnell Genome Institute	GCA_001682695.1	different	ftp://ftp.ncbi.nlm.nih.gov/genomes/all/GCF/001/682/695/GCF_001682695.1_Pygocentrus_nattereri-1.0.2		
GCF_001952655.1	PRJNA380265	SAMN06219872	AONE00000000.1	representative genome	43700	43700	Monopterus albus			latest	Scaffold	Major	Full	2017/01/17	M_albus_1.0	Wuhan University	GCA_001952655.1	different	ftp://ftp.ncbi.nlm.nih.gov/genomes/all/GCF/001/952/655/GCF_001952655.1_M_albus_1.0		
GCF_000385455.1	PRJNA217032	SAMN02981528	ARWJ00000000.1	representative genome	44394	44394	Zonotrichia albicollis		Tan morph	latest	Scaffold	Major	Full	2013/04/30	Zonotrichia_albicollis-1.0.1	White-throated sparrow consortium	GCA_000385455.1	identical	ftp://ftp.ncbi.nlm.nih.gov/genomes/all/GCF/000/385/455/GCF_000385455.1_Zonotrichia_albicollis-1.0.1		
GCF_000485575.1	PRJNA237006	SAMN02981564	AYCK00000000.1	representative genome	48698	48698	Poecilia formosa			latest	Scaffold	Major	Full	2013/10/28	Poecilia_formosa-5.1.2	Aquatic Genome Models	GCA_000485575.1	identical	ftp://ftp.ncbi.nlm.nih.gov/genomes/all/GCF/000/485/575/GCF_000485575.1_Poecilia_formosa-5.1.2		
GCF_001443285.1	PRJNA305623	SAMN02048973	LMXD00000000.1	representative genome	48699	48699	Poecilia latipinna		Pla-1442-1.1	latest	Scaffold	Major	Full	2015/11/13	P_latipinna-1.0	The Genome Institute at Washington University School of Medicine (WUGSC)	GCA_001443285.1	identical	ftp://ftp.ncbi.nlm.nih.gov/genomes/all/GCF/001/443/285/GCF_001443285.1_P_latipinna-1.0		
GCF_001443325.1	PRJNA305619	SAMN02048972	LMXC00000000.1	representative genome	48701	48701	Poecilia mexicana		Pme_1353_1.1	latest	Scaffold	Major	Full	2015/11/13	P_mexicana-1.0	The Genome Institute at Washington University School of Medicine (WUGSC)	GCA_001443325.1	identical	ftp://ftp.ncbi.nlm.nih.gov/genomes/all/GCF/001/443/325/GCF_001443325.1_P_mexicana-1.0		
GCF_000277835.1	PRJNA217051	SAMN00839579	AKZB00000000.1	representative genome	48883	48883	Geospiza fortis			latest	Scaffold	Major	Full	2012/07/25	GeoFor_1.0	Beijing Genomics Institute	GCA_000277835.1	identical	ftp://ftp.ncbi.nlm.nih.gov/genomes/all/GCF/000/277/835/GCF_000277835.1_GeoFor_1.0		
GCF_000708025.1	PRJNA263452	SAMN02296710	JMFX00000000.2	representative genome	50402	50402	Charadrius vociferus		BGI_N301	latest	Scaffold	Major	Full	2014/08/05	ASM70802v2	BGI	GCA_000708025.2	identical	ftp://ftp.ncbi.nlm.nih.gov/genomes/all/GCF/000/708/025/GCF_000708025.1_ASM70802v2		
GCF_000737465.1	PRJNA269279	SAMN02664716	JPRR00000000.1	representative genome	52644	52644	Haliaeetus leucocephalus		CR32	latest	Scaffold	Major	Full	2014/08/04	Haliaeetus_leucocephalus-4.0	The Bald Eagle Consortium	GCA_000737465.1	identical	ftp://ftp.ncbi.nlm.nih.gov/genomes/all/GCF/000/737/465/GCF_000737465.1_Haliaeetus_leucocephalus-4.0		
GCF_001266775.1	PRJNA294420	SAMN03490872	LDAR00000000.1	representative genome	52670	52670	Austrofundulus limnaeus	strain=Quisiro		latest	Scaffold	Major	Full	2015/07/28	Austrofundulus_limnaeus-1.0	Center for Life in Extreme Environments at Portland State University, Portland, OR	GCA_001266775.1	identical	ftp://ftp.ncbi.nlm.nih.gov/genomes/all/GCF/001/266/775/GCF_001266775.1_Austrofundulus_limnaeus-1.0		
GCF_000695765.1	PRJNA265381	SAMN02339298	JJRI00000000.1	representative genome	54374	54374	Mesitornis unicolor		BGI_N332	latest	Scaffold	Major	Full	2014/06/02	ASM69576v1	BGI	GCA_000695765.1	identical	ftp://ftp.ncbi.nlm.nih.gov/genomes/all/GCF/000/695/765/GCF_000695765.1_ASM69576v1		
GCF_000690535.1	PRJNA263623	SAMN02318733	JJRQ00000000.1	representative genome	54380	54380	Cariama cristata		BGI_N322	latest	Scaffold	Major	Full	2014/05/12	ASM69053v1	BGI	GCA_000690535.1	identical	ftp://ftp.ncbi.nlm.nih.gov/genomes/all/GCF/000/690/535/GCF_000690535.1_ASM69053v1		
GCF_000690775.1	PRJNA265393	SAMN02324546	JJRO00000000.1	representative genome	54383	54383	Eurypyga helias		BGI_N326	latest	Scaffold	Major	Full	2014/05/13	ASM69077v1	BGI	GCA_000690775.1	identical	ftp://ftp.ncbi.nlm.nih.gov/genomes/all/GCF/000/690/775/GCF_000690775.1_ASM69077v1		
GCF_000709325.1	PRJNA263299	SAMN02298149	JNOX00000000.1	representative genome	55661	55661	Cuculus canorus		BGI_N303	latest	Scaffold	Major	Full	2014/06/17	ASM70932v1	BGI	GCA_000709325.1	identical	ftp://ftp.ncbi.nlm.nih.gov/genomes/all/GCF/000/709/325/GCF_000709325.1_ASM70932v1		
GCF_000687205.1	PRJNA263629	SAMN02339894	JJRD00000000.1	representative genome	56313	56313	Tyto alba		BGI_N341	latest	Scaffold	Major	Full	2014/05/08	ASM68720v1	BGI	GCA_000687205.1	identical	ftp://ftp.ncbi.nlm.nih.gov/genomes/all/GCF/000/687/205/GCF_000687205.1_ASM68720v1		
GCF_900080235.1	PRJNA379987	SAMEA3939555	FKLU00000000.1	representative genome	56723	56723	Labrus bergylta			latest	Scaffold	Major	Full	2016/05/03	BallGen_V1	National Institute of nutrition and seafood research	GCA_900080235.1	identical	ftp://ftp.ncbi.nlm.nih.gov/genomes/all/GCF/900/080/235/GCF_900080235.1_BallGen_V1		
GCF_000695815.1	PRJNA253841	SAMN02318032	JJRS00000000.1	representative genome	57068	57068	Acanthisitta chloris		BGI_N310	latest	Scaffold	Major	Full	2014/05/27	ASM69581v1	BGI	GCA_000695815.1	identical	ftp://ftp.ncbi.nlm.nih.gov/genomes/all/GCF/000/695/815/GCF_000695815.1_ASM69581v1		
GCF_000703405.1	PRJNA263608	SAMN02318033	JMFV00000000.1	representative genome	57397	57397	Apaloderma vittatum		BGI_N311	latest	Scaffold	Major	Full	2014/06/16	ASM70340v1	BGI	GCA_000703405.1	identical	ftp://ftp.ncbi.nlm.nih.gov/genomes/all/GCF/000/703/405/GCF_000703405.1_ASM70340v1		
GCF_000690715.1	PRJNA265879	SAMN02324230	JJRP00000000.1	representative genome	57412	57412	Colius striatus		BGI_N325	latest	Scaffold	Major	Full	2014/05/13	ASM69071v1	BGI	GCA_000690715.1	identical	ftp://ftp.ncbi.nlm.nih.gov/genomes/all/GCF/000/690/715/GCF_000690715.1_ASM69071v1		
GCF_000691845.1	PRJNA253837	SAMN02338310	JJRJ00000000.1	representative genome	57421	57421	Merops nubicus		BGI_N331	latest	Scaffold	Major	Full	2014/05/16	ASM69184v1	BGI	GCA_000691845.1	identical	ftp://ftp.ncbi.nlm.nih.gov/genomes/all/GCF/000/691/845/GCF_000691845.1_ASM69184v1		
GCF_000151805.1	PRJNA32405	SAMN02981239	ABQF00000000.1	representative genome	59729	59729	Taeniopygia guttata		Black17	latest	Chromosome	Major	Full	2013/02/08	Taeniopygia_guttata-3.2.4	Washington University Genome Sequencing Center	GCA_000151805.2	different	ftp://ftp.ncbi.nlm.nih.gov/genomes/all/GCF/000/151/805/GCF_000151805.1_Taeniopygia_guttata-3.2.4		
GCF_000247815.1	PRJNA208061	SAMN02981387	AGTO00000000.2	representative genome	59894	59894	Ficedula albicollis		OC2	latest	Chromosome	Major	Full	2013/06/27	FicAlb1.5	Uppsala University	GCA_000247815.2	identical	ftp://ftp.ncbi.nlm.nih.gov/genomes/all/GCF/000/247/815/GCF_000247815.1_FicAlb1.5		
GCF_001515645.1	PRJNA316320	SAMN03320097	LCYQ00000000.1	representative genome	75366	75366	Sinocyclocheilus grahami		Dianchi	latest	Scaffold	Major	Full	2015/12/16	SAMN03320097.WGS_v1.1	BGI, Shenzhen	GCA_001515645.1	different	ftp://ftp.ncbi.nlm.nih.gov/genomes/all/GCF/001/515/645/GCF_001515645.1_SAMN03320097.WGS_v1.1		
GCF_002109545.1	PRJNA396896	SAMN06347167	MVNR00000000.1	representative genome	80966	80966	Acanthochromis polyacanthus	ecotype=Palm Islands		latest	Scaffold	Major	Full	2017/04/25	ASM210954v1	King Abdullah University of Science and technology	GCA_002109545.1	identical	ftp://ftp.ncbi.nlm.nih.gov/genomes/all/GCF/002/109/545/GCF_002109545.1_ASM210954v1		
GCF_000691975.1	PRJNA253849	SAMN02297499	JMFN00000000.1	representative genome	85066	85066	Corvus brachyrhynchos		BGI_N302	latest	Scaffold	Major	Full	2014/06/02	ASM69197v1	BGI	GCA_000691975.1	identical	ftp://ftp.ncbi.nlm.nih.gov/genomes/all/GCF/000/691/975/GCF_000691975.1_ASM69197v1		
GCF_001577835.1	PRJNA314147	SAMN03989050	LSZS00000000.1	representative genome	93934	93934	Coturnix japonica		7356	latest	Chromosome	Major	Full	2016/03/01	Coturnix japonica 2.0	McDonnell Genome Institute - Washington University School of Medicine	GCA_001577835.1	different	ftp://ftp.ncbi.nlm.nih.gov/genomes/all/GCF/001/577/835/GCF_001577835.1_Coturnix_japonica_2.0		
GCF_000705375.1	PRJNA265201	SAMN02316659	JMFW00000000.2	representative genome	94827	94827	Tinamus guttatus		BGI_N309	latest	Scaffold	Major	Full	2014/08/05	ASM70537v2	BGI	GCA_000705375.2	identical	ftp://ftp.ncbi.nlm.nih.gov/genomes/all/GCF/000/705/375/GCF_000705375.1_ASM70537v2		
GCF_001723915.1	PRJNA357062	SAMN03102901	MDVQ00000000.1	representative genome	94835	94835	Gavialis gangeticus		Ggan-Ray	latest	Scaffold	Major	Full	2016/09/13	GavGan_comp1	The International Crocodilian Genomes Working Group	GCA_001723915.1	different	ftp://ftp.ncbi.nlm.nih.gov/genomes/all/GCF/001/723/915/GCF_001723915.1_GavGan_comp1		
GCF_000687285.1	PRJNA265998	SAMN02339888	JJRF00000000.1	representative genome	97097	97097	Phaethon lepturus		BGI_N335	latest	Scaffold	Major	Full	2014/05/08	ASM68728v1	BGI	GCA_000687285.1	identical	ftp://ftp.ncbi.nlm.nih.gov/genomes/all/GCF/000/687/285/GCF_000687285.1_ASM68728v1		
GCF_900067755.1	PRJNA382134	SAMEA2300447	CEMB00000000.1	representative genome	103695	103695	Pogona vitticeps			latest	Scaffold	Major	Full	2017/02/28	pvi1.1	BRAEMBL	GCA_900067755.1	different	ftp://ftp.ncbi.nlm.nih.gov/genomes/all/GCF/900/067/755/GCF_900067755.1_pvi1.1		
GCF_001527695.2	PRJNA313429	SAMD00043515	BCNE00000000.2	representative genome	103944	103944	Protobothrops mucrosquamatus		PMUCROS	latest	Scaffold	Minor	Full	2016/01/22	P.Mucros_1.0	Okinawa Institute of Science and Technology	GCA_001527695.3	different	ftp://ftp.ncbi.nlm.nih.gov/genomes/all/GCF/001/527/695/GCF_001527695.2_P.Mucros_1.0		
GCF_001465895.1	PRJNA314891	SAMEA2698544	CCSH00000000.1	representative genome	105023	105023	Nothobranchius furzeri	strain=GRZ		latest	Chromosome	Major	Full	2015/12/11	Nfu_20140520	LEIBNIZ INSTITUTE FOR AGE RESEARCH - FRITZ LIPMANN	GCA_001465895.2	different	ftp://ftp.ncbi.nlm.nih.gov/genomes/all/GCF/001/465/895/GCF_001465895.1_Nfu_20140520		
GCF_000238955.2	PRJNA198780	SAMN03892560	AGTA00000000.3	representative genome	106582	106582	Maylandia zebra	ecotype=Mazinzi reef	#2_Kocher and #3_Kocher	latest	Scaffold	Major	Full	2015/09/22	M_zebra_UMD1	 University of Maryland	GCA_000238955.3	different	ftp://ftp.ncbi.nlm.nih.gov/genomes/all/GCF/000/238/955/GCF_000238955.2_M_zebra_UMD1		
GCF_001891065.1	PRJNA359802	SAMN04531611	LVHJ00000000.1	representative genome	109280	109280	Hippocampus comes		QL1	latest	Scaffold	Major	Full	2016/12/08	H_comes_QL1_v1	South China Sea Institute of Oceanology, Chinese Academy of Sciences	GCA_001891065.1	different	ftp://ftp.ncbi.nlm.nih.gov/genomes/all/GCF/001/891/065/GCF_001891065.1_H_comes_QL1_v1		
GCF_001624265.1	PRJNA347920	SAMN03894411	LGSG00000000.1	representative genome	113540	113540	Scleropages formosus	breed=golden arowana		latest	Scaffold	Major	Full	2016/04/20	ASM162426v1	BGI-SZ	GCA_001624265.1	different	ftp://ftp.ncbi.nlm.nih.gov/genomes/all/GCF/001/624/265/GCF_001624265.1_ASM162426v1		
GCF_000699005.1	PRJNA263502	SAMN02314405	JJRU00000000.1	representative genome	118200	118200	Picoides pubescens		BGI_N307	latest	Scaffold	Major	Full	2014/06/06	ASM69900v1	BGI	GCA_000699005.1	identical	ftp://ftp.ncbi.nlm.nih.gov/genomes/all/GCF/000/699/005/GCF_000699005.1_ASM69900v1		
GCF_000709365.1	PRJNA265115	SAMN02339893	JNOY00000000.1	representative genome	121530	121530	Tauraco erythrolophus		BGI_N340	latest	Scaffold	Major	Full	2014/06/25	ASM70936v1	BGI	GCA_000709365.1	identical	ftp://ftp.ncbi.nlm.nih.gov/genomes/all/GCF/000/709/365/GCF_000709365.1_ASM70936v1		
GCF_000935625.1	PRJNA344660	SAMN02720813	JYOU00000000.1	representative genome	125878	125878	Nanorana parkeri		BGI_ZX_2015	latest	Scaffold	Major	Full	2015/03/17	ASM93562v1	BGI-Shenzhen	GCA_000935625.1	different	ftp://ftp.ncbi.nlm.nih.gov/genomes/all/GCF/000/935/625/GCF_000935625.1_ASM93562v1		
GCF_000708225.1	PRJNA253829	SAMN02596464	JMFH00000000.1	representative genome	128390	128390	Nipponia nippon		BGI_Y956	latest	Scaffold	Major	Full	2014/06/16	ASM70822v1	College of Medicine and Forensics, Xi'an Jiaotong University	GCA_000708225.1	different	ftp://ftp.ncbi.nlm.nih.gov/genomes/all/GCF/000/708/225/GCF_000708225.1_ASM70822v1		
GCF_000690725.1	PRJNA251741	SAMN02743342	JMKM00000000.1	representative genome	144197	144197	Stegastes partitus		25-593	latest	Scaffold	Major	Full	2014/05/13	Stegastes_partitus-1.0.2	Aquatic Genome Models	GCA_000690725.1	identical	ftp://ftp.ncbi.nlm.nih.gov/genomes/all/GCF/000/690/725/GCF_000690725.1_Stegastes_partitus-1.0.2		
GCF_001447785.1	PRJNA308133	SAMN04157958	LNDG00000000.1	representative genome	146911	146911	Gekko japonicus		JY-2015	latest	Scaffold	Major	Full	2015/11/25	Gekko_japonicus_V1.1	Nantong University	GCA_001447785.1	different	ftp://ftp.ncbi.nlm.nih.gov/genomes/all/GCF/001/447/785/GCF_001447785.1_Gekko_japonicus_V1.1		
GCF_000788275.1	PRJNA384419	SAMN03201692	JACK00000000.1	representative genome	150288	150288	Boleophthalmus pectinirostris			latest	Scaffold	Major	Full	2014/12/02	BP.fa	BGI-shenzhen	GCA_000788275.1	different	ftp://ftp.ncbi.nlm.nih.gov/genomes/all/GCF/000/788/275/GCF_000788275.1_BP.fa		
GCF_000710305.1	PRJNA266010	SAMN02318191	JMFK00000000.1	representative genome	175836	175835	Buceros rhinoceros silvestris		BGI_N320	latest	Scaffold	Major	Full	2014/06/25	ASM71030v1	BGI	GCA_000710305.1	identical	ftp://ftp.ncbi.nlm.nih.gov/genomes/all/GCF/000/710/305/GCF_000710305.1_ASM71030v1		
GCF_000696875.1	PRJNA264990	SAMN02339299	JJRH00000000.1	representative genome	176057	176057	Nestor notabilis		BGI_N333	latest	Scaffold	Major	Full	2014/06/05	ASM69687v1	BGI	GCA_000696875.1	identical	ftp://ftp.ncbi.nlm.nih.gov/genomes/all/GCF/000/696/875/GCF_000696875.1_ASM69687v1		
GCF_000186305.1	PRJNA238085	SAMN02981298	AEQU00000000.2	representative genome	176946	176946	Python bivittatus			latest	Scaffold	Major	Full	2013/09/15	Python_molurus_bivittatus-5.0.2	The Consortium for Comparative Genomics, UC Denver	GCA_000186305.2	different	ftp://ftp.ncbi.nlm.nih.gov/genomes/all/GCF/000/186/305/GCF_000186305.1_Python_molurus_bivittatus-5.0.2		
GCF_000738735.2	PRJNA258180	SAMN02143031	JPSR00000000.2	representative genome	932674	181096	Corvus cornix cornix		S_Up_H32	latest	Scaffold	Major	Full	2017/03/08	ASM73873v2	Uppsala University	GCA_000738735.2	different	ftp://ftp.ncbi.nlm.nih.gov/genomes/all/GCF/000/738/735/GCF_000738735.2_ASM73873v2		
GCF_000331425.1	PRJNA217046	SAMN02981490	ANZD00000000.1	representative genome	181119	181119	Pseudopodoces humilis			latest	Scaffold	Major	Full	2013/01/11	PseHum1.0	Beijing Genomics Institute (BGI)-Shenzhen	GCA_000331425.1	different	ftp://ftp.ncbi.nlm.nih.gov/genomes/all/GCF/000/331/425/GCF_000331425.1_PseHum1.0		
GCF_000695195.1	PRJNA266006	SAMN02324157	JMFJ00000000.1	representative genome	187382	187382	Chlamydotis macqueenii		BGI_N324	latest	Scaffold	Major	Full	2014/06/02	ASM69519v1	BGI	GCA_000695195.1	identical	ftp://ftp.ncbi.nlm.nih.gov/genomes/all/GCF/000/695/195/GCF_000695195.1_ASM69519v1		
GCF_000691785.1	PRJNA263616	SAMN02333687	JJRK00000000.1	representative genome	188344	188344	Leptosomus discolor		BGI_N330	latest	Scaffold	Major	Full	2014/05/23	ASM69178v1	BGI	GCA_000691785.1	identical	ftp://ftp.ncbi.nlm.nih.gov/genomes/all/GCF/000/691/785/GCF_000691785.1_ASM69178v1		
GCF_000687185.1	PRJNA253831	SAMN02596466	JJRC00000000.1	representative genome	188379	188379	Egretta garzetta		BGI_Z169	latest	Scaffold	Major	Full	2014/05/09	ASM68718v1	College of Medicine and Forensics, Xi'an Jiaotong University	GCA_000687185.1	different	ftp://ftp.ncbi.nlm.nih.gov/genomes/all/GCF/000/687/185/GCF_000687185.1_ASM68718v1		
GCF_001431845.1	PRJNA305421	SAMN03491621	LDEH00000000.1	representative genome	198806	198806	Calidris pugnax		Ruff	latest	Scaffold	Major	Full	2015/11/04	ASM143184v1	BGI	GCA_001431845.1	identical	ftp://ftp.ncbi.nlm.nih.gov/genomes/all/GCF/001/431/845/GCF_001431845.1_ASM143184v1		
GCF_000972845.1	PRJNA354443	SAMN03092871	JRPU00000000.1	representative genome	215358	215358	Larimichthys crocea		SSNF	latest	Scaffold	Major	Full	2015/04/21	L_crocea_1.0	BGI	GCA_000972845.1	different	ftp://ftp.ncbi.nlm.nih.gov/genomes/all/GCF/000/972/845/GCF_000972845.1_L_crocea_1.0		
GCF_000699245.1	PRJNA265368	SAMN02339892	JMFR00000000.1	representative genome	240206	240206	Pterocles gutturalis		BGI_N339	latest	Scaffold	Major	Full	2014/06/09	ASM69924v1	BGI	GCA_000699245.1	identical	ftp://ftp.ncbi.nlm.nih.gov/genomes/all/GCF/000/699/245/GCF_000699245.1_ASM69924v1		
GCF_000523025.1	PRJNA251742	SAMN02595200	AGRG00000000.1	representative genome	244447	244447	Cynoglossus semilaevis		Cse_v1.0	latest	Chromosome	Major	Full	2014/01/28	Cse_v1.0	Beijing Genomics Institute 	GCA_000523025.1	different	ftp://ftp.ncbi.nlm.nih.gov/genomes/all/GCF/000/523/025/GCF_000523025.1_Cse_v1.0		
GCF_001642345.1	PRJNA378405	SAMN04562461	LVEK00000000.2	representative genome	259920	259920	Rhincodon typus		Ralph	latest	Scaffold	Major	Full	2017/03/03	ASM164234v2	Emory University	GCA_001642345.2	different	ftp://ftp.ncbi.nlm.nih.gov/genomes/all/GCF/001/642/345/GCF_001642345.1_ASM164234v2		
GCF_000700745.1	PRJNA265383	SAMN02318612	JMFU00000000.1	representative genome	279965	279965	Antrostomus carolinensis		BGI_N321	latest	Scaffold	Major	Full	2014/06/10	ASM70074v1	BGI	GCA_000700745.1	identical	ftp://ftp.ncbi.nlm.nih.gov/genomes/all/GCF/000/700/745/GCF_000700745.1_ASM70074v1		
GCF_000239375.1	PRJNA220167	SAMN00149614	AFNX00000000.1	representative genome	303518	303518	Pundamilia nyererei		P.nyererei 1_Seehausen	latest	Scaffold	Major	Full	2011/12/22	PunNye1.0	Broad Institute	GCA_000239375.1	identical	ftp://ftp.ncbi.nlm.nih.gov/genomes/all/GCF/000/239/375/GCF_000239375.1_PunNye1.0		
GCF_001515625.1	PRJNA319352	SAMN03320098	LAVF00000000.1	representative genome	307959	307959	Sinocyclocheilus rhinocerous		Xijiao	latest	Scaffold	Major	Full	2015/12/14	SAMN03320098_v1.1	BGI, Shenzhen	GCA_001515625.1	different	ftp://ftp.ncbi.nlm.nih.gov/genomes/all/GCF/001/515/625/GCF_001515625.1_SAMN03320098_v1.1		
GCF_001604755.1	PRJNA338288	SAMN04274560	LVWP00000000.1	representative genome	321398	321398	Lepidothrix coronata		B3197	latest	Scaffold	Major	Full	2016/03/31	Lepidothrix_coronata-1.0	McDonnell Genome Institute	GCA_001604755.1	identical	ftp://ftp.ncbi.nlm.nih.gov/genomes/all/GCF/001/604/755/GCF_001604755.1_Lepidothrix_coronata-1.0		
GCF_000692015.1	PRJNA253835	SAMN02299332	JMFM00000000.2	na	328815	328815	Manacus vitellinus		BGI_N305	latest	Scaffold	Major	Full	2014/08/01	ASM69201v2	BGI	GCA_000692015.2	identical	ftp://ftp.ncbi.nlm.nih.gov/genomes/all/GCF/000/692/015/GCF_000692015.1_ASM69201v2		
GCF_001715985.1	PRJNA341382	SAMN02299332	MCBO00000000.1	representative genome	328815	328815	Manacus vitellinus		BGI_N305	latest	Scaffold	Major	Full	2016/08/29	ASM171598v1	Smithsonian Institution National Museum of Natural History	GCA_001715985.1	identical	ftp://ftp.ncbi.nlm.nih.gov/genomes/all/GCF/001/715/985/GCF_001715985.1_ASM171598v1		
GCF_000337975.1	PRJNA217049	SAMN02981426	AKMU00000000.1	representative genome	345164	345164	Falco cherrug			latest	Scaffold	Major	Full	2013/02/05	F_cherrug_v1.0	BGI	GCA_000337975.1	identical	ftp://ftp.ncbi.nlm.nih.gov/genomes/all/GCF/000/337/975/GCF_000337975.1_F_cherrug_v1.0		
GCF_000709895.1	PRJNA264996	SAMN02318095	JJRR00000000.1	representative genome	100784	925459	Balearica regulorum gibbericeps		BGI_N312	latest	Scaffold	Major	Full	2014/06/25	ASM70989v1	BGI	GCA_000709895.1	different	ftp://ftp.ncbi.nlm.nih.gov/genomes/all/GCF/000/709/895/GCF_000709895.1_ASM70989v1		
GCF_001515605.1	PRJNA319338	SAMN03320099	LAVE00000000.1	representative genome	1608454	1608454	Sinocyclocheilus anshuiensis		Anshui	latest	Scaffold	Major	Full	2015/12/14	SAMN03320099.WGS_v1.1	BGI, Shenzhen	GCA_001515605.1	different	ftp://ftp.ncbi.nlm.nih.gov/genomes/all/GCF/001/515/605/GCF_001515605.1_SAMN03320099.WGS_v1.1		
